{
    "callback": "success",
    "contextWrites": {
        "to": {
            "date": "2019-10-13",
            "explanation": "Jewels don't shine this bright -- only stars do.  Like gems in a jewel box, though, the stars of open cluster NGC 290 glitter in a beautiful display of brightness and color.   The photogenic cluster, pictured here, was captured in 2006 by the orbiting Hubble Space Telescope.  Open clusters of stars are younger, contain few stars, and contain a much higher fraction of blue stars than do globular clusters of stars.  NGC 290 lies about 200,000  light-years distant in a neighboring galaxy called the Small Cloud of Magellan (SMC).   The open cluster contains hundreds of stars and spans about 65 light years across.  NGC 290 and other open clusters are good laboratories for studying how stars of different masses evolve, since all the open cluster's stars were born at about the same time.",
            "hdurl": "https:\/\/apod.nasa.gov\/apod\/image\/1910\/Ngc290_HubbleOlszewski_1701.jpg",
            "media_type": "image",
            "service_version": "v1",
            "title": "A Stellar Jewel Box: Open Cluster NGC 290",
            "url": "https:\/\/apod.nasa.gov\/apod\/image\/1910\/Ngc290_HubbleOlszewski_960.jpg"
        }
    }
}